{
    "prepare_queue": {
        "installed": [],
        "uninstalled": []
    },
    "config_munge": {
        "files": {}
    },
    "installed_plugins": {
        "cordova-plugin-camera": {
            "PACKAGE_NAME": "com.tapper.cardadmin"
        },
        "cordova-plugin-file": {
            "PACKAGE_NAME": "com.tapper.cardadmin"
        },
        "cordova-plugin-file-transfer": {
            "PACKAGE_NAME": "com.tapper.cardadmin"
        },
        "cordova-plugin-inappbrowser": {
            "PACKAGE_NAME": "com.tapper.cardadmin"
        },
        "cordova-plugin-whitelist": {
            "PACKAGE_NAME": "com.tapper.cardadmin"
        },
        "cordova-plugin-x-socialsharing": {
            "PACKAGE_NAME": "com.tapper.cardadmin"
        },
        "cordova-plugin-splashscreen": {
            "PACKAGE_NAME": "com.tapper.cardadmin"
        },
        "cordova-plugin-geolocation": {
            "PACKAGE_NAME": "com.tapper.cardadmin"
        },
        "cordova-plugin-fastrde-checkgps": {
            "PACKAGE_NAME": "com.tapper.cardadmin"
        }
    },
    "dependent_plugins": {
        "cordova-plugin-compat": {
            "PACKAGE_NAME": "com.tapper.cardadmin"
        }
    }
}